{
	"info": {
		"_postman_id": "a2fc8e07-72cb-45f0-991f-3ad739da4fbb",
		"name": "searchFile",
		"schema": "https://schema.getpostman.com/json/collection/v2.1.0/collection.json"
	},
	"item": [
		{
			"name": "New Request",
			"request": {
				"method": "GET",
				"header": [],
				"url": {
					"raw": "http://localhost:8081/scan",
					"protocol": "http",
					"host": [
						"localhost"
					],
					"port": "8081",
					"path": [
						"scan"
					]
				},
				"description": "This will scan the all the file's from the particular folder. and it fetch the filename,filetype,createddate of all files.and stored it into inmemory DB"
			},
			"response": []
		},
		{
			"name": "New Request",
			"request": {
				"method": "GET",
				"header": [],
				"url": {
					"raw": "http://localhost:8081/search",
					"protocol": "http",
					"host": [
						"localhost"
					],
					"port": "8081",
					"path": [
						"search"
					]
				},
				"description": "this will fetch the all values from db.\ntht filename,filetype,filecreateddate"
			},
			"response": []
		},
		{
			"name": "New Request",
			"request": {
				"method": "GET",
				"header": [],
				"url": {
					"raw": "http://localhost:8081/search/name/{filename}",
					"protocol": "http",
					"host": [
						"localhost"
					],
					"port": "8081",
					"path": [
						"search",
						"name",
						"{filename}"
					]
				},
				"description": "provide file name after /name/.. nd this will search nd return d tht particular file."
			},
			"response": []
		},
		{
			"name": "New Request",
			"request": {
				"method": "GET",
				"header": [],
				"url": {
					"raw": "http://localhost:8081/search/type/{type}",
					"protocol": "http",
					"host": [
						"localhost"
					],
					"port": "8081",
					"path": [
						"search",
						"type",
						"{type}"
					]
				},
				"description": "after type provide type of file.\nthat will return all filetype tht matched."
			},
			"response": []
		},
		{
			"name": "New Request",
			"request": {
				"method": "GET",
				"header": [],
				"url": {
					"raw": "http://localhost:8081/search/metadata",
					"protocol": "http",
					"host": [
						"localhost"
					],
					"port": "8081",
					"path": [
						"search",
						"metadata"
					]
				},
				"description": "will get the all the file's along with input text to search the file name.\nprovide file name in tht input text and submit. if file exist it will print file name otherwise filenotexit.msg"
			},
			"response": []
		}
	]
}